%YAML 1.1
%TAG !u! tag:unity3d.com,2011:
--- !u!114 &11400000
MonoBehaviour:
  m_ObjectHideFlags: 0
  m_CorrespondingSourceObject: {fileID: 0}
  m_PrefabInstance: {fileID: 0}
  m_PrefabAsset: {fileID: 0}
  m_GameObject: {fileID: 0}
  m_Enabled: 1
  m_EditorHideFlags: 0
  m_Script: {fileID: 11500000, guid: bbb281ee3bf0b054c82ac2347e9e782c, type: 3}
  m_Name: Localization-String-Tables-English (en)
  m_EditorClassIdentifier: 
  m_GroupName: Localization-String-Tables-English (en)
  m_Data:
    m_SerializedData: []
  m_GUID: 57e34dccff2106745814774129a6e29f
  m_SerializeEntries:
  - m_GUID: 200b902de57ab6b4bb9cbdcc23bbee40
    m_Address: UI_Text_en
    m_ReadOnly: 1
    m_SerializedLabels:
    - Locale-en
    - Preload
  m_ReadOnly: 1
  m_Settings: {fileID: 11400000, guid: bf1cb1ce3d6a31d4396062eca1cf7bff, type: 2}
  m_SchemaSet:
    m_Schemas:
    - {fileID: 11400000, guid: d04e50523eb476f4698b8f2d234eb246, type: 2}
    - {fileID: 11400000, guid: 01e18aca7e0ce3148a287f3e5228bb2c, type: 2}
