%YAML 1.1
%TAG !u! tag:unity3d.com,2011:
--- !u!114 &11400000
MonoBehaviour:
  m_ObjectHideFlags: 0
  m_CorrespondingSourceObject: {fileID: 0}
  m_PrefabInstance: {fileID: 0}
  m_PrefabAsset: {fileID: 0}
  m_GameObject: {fileID: 0}
  m_Enabled: 1
  m_EditorHideFlags: 0
  m_Script: {fileID: 11500000, guid: e9620f8c34305754d8cc9a7e49e852d9, type: 3}
  m_Name: UI_Text_en
  m_EditorClassIdentifier: 
  m_LocaleId:
    m_Code: en
  m_SharedData: {fileID: 11400000, guid: 3ddee46ac03cbcf47ad05a1404338177, type: 2}
  m_Metadata:
    m_Items: []
  m_TableData:
  - m_Id: 22379601469440
    m_Localized: 'Welcome to The virtual tour of

      the Vertical Farm'
    m_Metadata:
      m_Items: []
  - m_Id: 23790770855936
    m_Localized: 'Select your

      language'
    m_Metadata:
      m_Items: []
  - m_Id: 108985796665344
    m_Localized: The Nursery
    m_Metadata:
      m_Items: []
  - m_Id: 109878495551488
    m_Localized: Production Rooms
    m_Metadata:
      m_Items: []
  - m_Id: 110504323457024
    m_Localized: Technical Unit
    m_Metadata:
      m_Items: []
  - m_Id: 110718069383168
    m_Localized: Showroom
    m_Metadata:
      m_Items: []
  - m_Id: 116861512589312
    m_Localized: Skip the video
    m_Metadata:
      m_Items: []
  - m_Id: 1181247765356544
    m_Localized: Select a room to visit
    m_Metadata:
      m_Items: []
  references:
    version: 2
    RefIds: []
